<svg xmlns="http://www.w3.org/2000/svg" version="1.1" xmlns:xlink="http://www.w3.org/1999/xlink" preserveAspectRatio="none" x="0px" y="0px" width="300px" height="250px" viewBox="0 0 300 250" src="assets/plus.svg" data-gwd-node="true" is="gwd-image" source="assets/plus.svg" id="plus" gwd-svg-index="7" class="gwd-img-1c8r" style="">
<defs data-gwd-node="true">
<g id="Layer0_0_FILL" data-gwd-node="true">
<path fill="#FFFFFF" stroke="none" d="
M 152.95 71.7
L 149.2 71.7 147.95 76.9 143.25 76.9 142.55 80.25 147.15 80.25 146 85.5 149.8 85.5 151 80.25 155.6 80.25 156.4 76.9 151.75 76.9 152.95 71.7 Z" data-gwd-node="true"></path>
</g>
</defs>

<g transform="matrix( 1, 0, 0, 1, 0,0) " data-gwd-node="true">
<use xlink:href="#Layer0_0_FILL" data-gwd-node="true"></use>
</g>
</svg>